<?xml version="1.0" encoding="iso-8859-1"?>
<!-- Generator: Adobe Illustrator 18.0.0, SVG Export Plug-In . SVG Version: 6.00 Build 0)  -->
<!DOCTYPE svg PUBLIC "-//W3C//DTD SVG 1.1//EN" "http://www.w3.org/Graphics/SVG/1.1/DTD/svg11.dtd">
<svg version="1.1" id="Capa_1" xmlns="http://www.w3.org/2000/svg" xmlns:xlink="http://www.w3.org/1999/xlink" x="0px" y="0px"
	 viewBox="0 0 60 60" style="enable-background:new 0 0 60 60;" xml:space="preserve">
<path d="M54.614,39H39v-6h-4v-6.242c0-2.138,0.922-4.146,2.466-5.374C40.348,19.095,42,15.674,42,12c0-6.616-5.383-12-12-12
	c-0.466,0-0.938,0.027-1.406,0.081c-5.353,0.609-9.761,4.922-10.481,10.254c-0.57,4.224,1.057,8.333,4.353,10.993
	C24.052,22.609,25,24.708,25,26.941V33h-4v6H5.386C4.07,39,3,40.07,3,41.386v11.229C3,53.93,4.07,55,5.386,55H6.09
	c0.478,2.833,2.942,5,5.91,5h36c2.967,0,5.431-2.167,5.91-5h0.705C55.93,55,57,53.93,57,52.614V41.386C57,40.07,55.93,39,54.614,39z
	 M23,35h2h10h2v4H23V35z M48,58H12c-1.86,0-3.429-1.276-3.873-3h43.746C51.429,56.724,49.86,58,48,58z"/>
<g>
</g>
<g>
</g>
<g>
</g>
<g>
</g>
<g>
</g>
<g>
</g>
<g>
</g>
<g>
</g>
<g>
</g>
<g>
</g>
<g>
</g>
<g>
</g>
<g>
</g>
<g>
</g>
<g>
</g>
</svg>
