<?xml version="1.0" encoding="iso-8859-1"?>
<!-- Generator: Adobe Illustrator 19.0.0, SVG Export Plug-In . SVG Version: 6.00 Build 0)  -->
<svg version="1.1" id="Capa_1" xmlns="http://www.w3.org/2000/svg" xmlns:xlink="http://www.w3.org/1999/xlink" x="0px" y="0px"
	 viewBox="0 0 512 512" style="enable-background:new 0 0 512 512;" xml:space="preserve">
<path style="fill:#F5CDB3;" d="M65.782,447.977c-26.082,0.131-47.724-20.174-49.271-46.224L0.089,125.22
	C-0.69,112.118,3.68,99.498,12.394,89.682c8.714-9.815,20.729-15.649,33.832-16.426l197.075-11.705
	c27.292-1.634,50.364,19.195,51.964,46.14l16.424,276.531c1.608,27.046-19.092,50.358-46.137,51.965L68.477,447.889
	C67.576,447.943,66.674,447.973,65.782,447.977z"/>
<path style="fill:#F0A479;" d="M295.266,107.69c-1.6-26.944-24.672-47.774-51.964-46.14l-96.81,5.75l21.531,374.677l97.531-5.793
	c27.046-1.607,47.744-24.918,46.137-51.965L295.266,107.69z"/>
<path style="fill:#707070;" d="M101.305,139.914c-18.99,0-34.673-14.861-35.705-33.832l-1.902-35.013
	C62.63,51.372,77.783,34.477,97.477,33.406l92.497-5.026c19.821-1.088,36.597,14.159,37.663,33.78l1.902,35.012
	c1.07,19.695-14.083,36.59-33.78,37.661l-92.497,5.026C102.608,139.896,101.954,139.914,101.305,139.914z"/>
<path style="fill:#FF8546;" d="M169.37,477.637c-6.666,0-12.984-3.967-15.663-10.518L87.734,305.73
	c-3.535-8.647,0.61-18.522,9.257-22.057c8.647-3.533,18.521,0.61,22.057,9.257l65.974,161.388
	c3.535,8.647-0.609,18.522-9.257,22.057C173.67,477.232,171.502,477.637,169.37,477.637z"/>
<path style="fill:#CCF7F5;" d="M481.427,483.674H238.523c-16.858,0-30.573-13.715-30.573-30.574V223.803
	c0-4.487,1.783-8.789,4.955-11.959l98.892-98.892c3.172-3.172,7.474-4.955,11.961-4.955h157.669
	c16.858,0,30.573,13.715,30.573,30.574V453.1C512,469.958,498.285,483.674,481.427,483.674z"/>
<g>
	<path style="fill:#74D6D0;" d="M481.427,106.913H357.978v375.676h123.449c16.858,0,30.573-13.715,30.573-30.574V137.488
		C512,120.629,498.285,106.913,481.427,106.913z"/>
	<path style="fill:#74D6D0;" d="M481.427,106.913H371.144v375.676h110.283c16.858,0,30.573-13.715,30.573-30.574V137.488
		C512,120.629,498.285,106.913,481.427,106.913z"/>
</g>
<path style="fill:#F4F4F4;" d="M334.673,110.29c-2.9-2.952-6.935-4.788-11.399-4.788c-0.024,0-0.344,0.017-0.344,0.017
	c-4.178,0.09-7.958,1.776-10.755,4.48l-0.005-0.006L211.646,210.605l0.001,0.001c-2.307,2.771-3.696,6.332-3.696,10.22
	c0,8.828,7.157,15.986,15.985,15.986c0.198,0,0.39-0.023,0.586-0.029c0.196,0.008,0.388,0.029,0.586,0.029h97.847
	c9.242,0,16.735-7.493,16.735-16.735v-97.847C339.689,117.551,337.766,113.328,334.673,110.29z"/>
<path style="fill:#E0E0E0;" d="M334.673,110.29c-2.9-2.952-6.935-4.788-11.399-4.788c-0.024,0-0.344,0.017-0.344,0.017
	c-4.178,0.09-7.958,1.776-10.755,4.48l-0.005-0.006l-55.835,55.883v70.934h66.619c9.242,0,16.735-7.493,16.735-16.735v-97.847
	C339.689,117.551,337.766,113.328,334.673,110.29z"/>
<g>
	<path style="fill:#575757;" d="M451.012,300.21H303.723c-9.341,0-16.914-7.573-16.914-16.914c0-9.341,7.573-16.914,16.914-16.914
		h147.289c9.341,0,16.914,7.573,16.914,16.914C467.926,292.637,460.353,300.21,451.012,300.21z"/>
	<path style="fill:#575757;" d="M451.012,350.529H303.723c-9.341,0-16.914-7.573-16.914-16.914c0-9.341,7.573-16.914,16.914-16.914
		h147.289c9.341,0,16.914,7.573,16.914,16.914C467.926,342.956,460.353,350.529,451.012,350.529z"/>
	<path style="fill:#575757;" d="M451.012,400.848H303.723c-9.341,0-16.914-7.573-16.914-16.914c0-9.341,7.573-16.914,16.914-16.914
		h147.289c9.341,0,16.914,7.573,16.914,16.914C467.926,393.275,460.353,400.848,451.012,400.848z"/>
</g>
<g>
</g>
<g>
</g>
<g>
</g>
<g>
</g>
<g>
</g>
<g>
</g>
<g>
</g>
<g>
</g>
<g>
</g>
<g>
</g>
<g>
</g>
<g>
</g>
<g>
</g>
<g>
</g>
<g>
</g>
</svg>
